project_1/project_1.sim/sim_1/behav/xsim/simulate.log
Vivado Simulator 2020.1
Time resolution is 1 ps
TIME = 0, CLK = 0, PC = 00
 
[$s0] = 00000000, [$s1] = 00000000, [$s2] = 00000000
 
[$s3] = 00000000, [$s4] = 00000000, [$s5] = 00000000
 
[$s6] = 00000000, [$s7] = 00000000, [$t0] = 00000020
 
[$t1] = 00000000, [$t2] = 00000000, [$t3] = 00000000
 
[$t4] = 00000000, [$t5] = 00000000, [$t6] = 00000000
 
[$t7] = 00000000, [$t8] = 00000000, [$t9] = 00000000
 
TIME = 10000, CLK = 1, PC = 01
 
[$s0] = 00000000, [$s1] = 00000000, [$s2] = 00000000
 
[$s3] = 00000000, [$s4] = 00000000, [$s5] = 00000000
 
[$s6] = 00000000, [$s7] = 00000000, [$t0] = 00000020
 
[$t1] = 00000037, [$t2] = 00000000, [$t3] = 00000000
 
[$t4] = 00000000, [$t5] = 00000000, [$t6] = 00000000
 
[$t7] = 00000000, [$t8] = 00000000, [$t9] = 00000000
 
TIME = 0, CLK = 0, PC = 02
 
[$s0] = 00000020, [$s1] = 00000000, [$s2] = 00000000
 
[$s3] = 00000000, [$s4] = 00000000, [$s5] = 00000000
 
[$s6] = 00000000, [$s7] = 00000000, [$t0] = 00000020
 
[$t1] = 00000037, [$t2] = 00000000, [$t3] = 00000000
 
[$t4] = 00000000, [$t5] = 00000000, [$t6] = 00000000
 
[$t7] = 00000000, [$t8] = 00000000, [$t9] = 00000000
 
TIME = 10000, CLK = 1, PC = 03
 
[$s0] = 00000037, [$s1] = 00000000, [$s2] = 00000000
 
[$s3] = 00000000, [$s4] = 00000000, [$s5] = 00000000
 
[$s6] = 00000000, [$s7] = 00000000, [$t0] = 00000020
 
[$t1] = 00000037, [$t2] = 00000000, [$t3] = 00000000
 
[$t4] = 00000000, [$t5] = 00000000, [$t6] = 00000000
 
[$t7] = 00000000, [$t8] = 00000000, [$t9] = 00000000
 
TIME = 0, CLK = 0, PC = 04
 
[$s0] = 00000037, [$s1] = 00000000, [$s2] = 00000000
 
[$s3] = 00000000, [$s4] = 00000000, [$s5] = 00000000
 
[$s6] = 00000000, [$s7] = 00000000, [$t0] = 00000020
 
[$t1] = 00000037, [$t2] = 00000000, [$t3] = 00000000
 
[$t4] = 00000000, [$t5] = 00000000, [$t6] = 00000000
 
[$t7] = 00000000, [$t8] = 00000000, [$t9] = 00000000
 
TIME = 10000, CLK = 1, PC = 05
 
[$s0] = 00000037, [$s1] = 00000000, [$s2] = 00000000
 
[$s3] = 00000000, [$s4] = 00000000, [$s5] = 00000000
 
[$s6] = 00000000, [$s7] = 00000000, [$t0] = 00000020
 
[$t1] = 00000037, [$t2] = 00000000, [$t3] = 00000000
 
[$t4] = 00000000, [$t5] = 00000000, [$t6] = 00000000
 
[$t7] = 00000000, [$t8] = 00000000, [$t9] = 00000000
 
TIME = 0, CLK = 0, PC = 06
 
[$s0] = 00000037, [$s1] = 00000057, [$s2] = 00000000
 
[$s3] = 00000000, [$s4] = 00000000, [$s5] = 00000000
 
[$s6] = 00000000, [$s7] = 00000000, [$t0] = 00000020
 
[$t1] = 00000037, [$t2] = 00000000, [$t3] = 00000000
 
[$t4] = 00000000, [$t5] = 00000000, [$t6] = 00000000
 
[$t7] = 00000000, [$t8] = 00000000, [$t9] = 00000000
 
TIME = 10000, CLK = 1, PC = 07
 
[$s0] = 00000037, [$s1] = 00000057, [$s2] = ffffffe9
 
[$s3] = 00000000, [$s4] = 00000000, [$s5] = 00000000
 
[$s6] = 00000000, [$s7] = 00000000, [$t0] = 00000020
 
[$t1] = 00000037, [$t2] = 00000000, [$t3] = 00000000
 
[$t4] = 00000000, [$t5] = 00000000, [$t6] = 00000000
 
[$t7] = 00000000, [$t8] = 00000000, [$t9] = 00000000
 
TIME = 0, CLK = 0, PC = 08
 
[$s0] = 00000037, [$s1] = 00000057, [$s2] = ffffffe9
 
[$s3] = 00000000, [$s4] = 00000000, [$s5] = 00000000
 
[$s6] = 00000000, [$s7] = 00000000, [$t0] = 00000020
 
[$t1] = 00000037, [$t2] = 00000000, [$t3] = 00000000
 
[$t4] = 00000000, [$t5] = 00000000, [$t6] = 00000000
 
[$t7] = 00000000, [$t8] = 00000000, [$t9] = 00000000
 
TIME = 10000, CLK = 1, PC = 09
 
[$s0] = 00000037, [$s1] = 00000057, [$s2] = ffffffe9
 
[$s3] = 00000000, [$s4] = 00000000, [$s5] = 00000000
 
[$s6] = 00000000, [$s7] = 00000000, [$t0] = 00000020
 
[$t1] = 00000037, [$t2] = 00000000, [$t3] = 00000000
 
[$t4] = 00000000, [$t5] = 00000000, [$t6] = 00000000
 
[$t7] = 00000000, [$t8] = 00000000, [$t9] = 00000000
 
TIME = 0, CLK = 0, PC = 0a
 
[$s0] = 00000037, [$s1] = 00000057, [$s2] = ffffffe9
 
[$s3] = 00000000, [$s4] = 00000000, [$s5] = 00000000
 
[$s6] = 00000000, [$s7] = 00000000, [$t0] = 00000020
 
[$t1] = 00000037, [$t2] = 00000000, [$t3] = 00000000
 
[$t4] = 00000000, [$t5] = 00000000, [$t6] = 00000000
 
[$t7] = 00000000, [$t8] = 00000000, [$t9] = 00000000
 
TIME = 10000, CLK = 1, PC = 0b
 
[$s0] = 00000037, [$s1] = 00000057, [$s2] = ffffffe9
 
[$s3] = 00000000, [$s4] = 00000000, [$s5] = 00000000
 
[$s6] = 00000000, [$s7] = 00000000, [$t0] = 00000020
 
[$t1] = 00000037, [$t2] = 00000000, [$t3] = 00000000
 
[$t4] = 00000000, [$t5] = 00000000, [$t6] = 00000000
 
[$t7] = 00000000, [$t8] = 00000000, [$t9] = 00000000
 
TIME = 0, CLK = 0, PC = 0c
 
[$s0] = 00000037, [$s1] = 00000037, [$s2] = ffffffe9
 
[$s3] = 00000000, [$s4] = 00000000, [$s5] = 00000000
 
[$s6] = 00000000, [$s7] = 00000000, [$t0] = 00000020
 
[$t1] = 00000037, [$t2] = 00000000, [$t3] = 00000000
 
[$t4] = 00000000, [$t5] = 00000000, [$t6] = 00000000
 
[$t7] = 00000000, [$t8] = 00000000, [$t9] = 00000000
 
TIME = 10000, CLK = 1, PC = 0d
 
[$s0] = 00000037, [$s1] = 00000037, [$s2] = 00000000
 
[$s3] = 00000000, [$s4] = 00000000, [$s5] = 00000000
 
[$s6] = 00000000, [$s7] = 00000000, [$t0] = 00000020
 
[$t1] = 00000037, [$t2] = 00000000, [$t3] = 00000000
 
[$t4] = 00000000, [$t5] = 00000000, [$t6] = 00000000
 
[$t7] = 00000000, [$t8] = 00000000, [$t9] = 00000000
 
TIME = 0, CLK = 0, PC = 0e
 
[$s0] = 00000037, [$s1] = 00000037, [$s2] = 00000000
 
[$s3] = 00000000, [$s4] = 00000000, [$s5] = 00000000
 
[$s6] = 00000000, [$s7] = 00000000, [$t0] = 00000020
 
[$t1] = 00000037, [$t2] = 00000000, [$t3] = 00000000
 
[$t4] = 00000000, [$t5] = 00000000, [$t6] = 00000000
 
[$t7] = 00000000, [$t8] = 00000000, [$t9] = 00000000
 
TIME = 10000, CLK = 1, PC = 0f
 
[$s0] = 00000037, [$s1] = 00000037, [$s2] = 00000000
 
[$s3] = 00000000, [$s4] = 00000000, [$s5] = 00000000
 
[$s6] = 00000000, [$s7] = 00000000, [$t0] = 00000020
 
[$t1] = 00000037, [$t2] = 00000000, [$t3] = 00000000
 
[$t4] = 00000000, [$t5] = 00000000, [$t6] = 00000000
 
[$t7] = 00000000, [$t8] = 00000000, [$t9] = 00000000
 
TIME = 0, CLK = 0, PC = 10
 
[$s0] = 00000037, [$s1] = 00000037, [$s2] = 00000000
 
[$s3] = 00000000, [$s4] = 00000000, [$s5] = 00000000
 
[$s6] = 00000000, [$s7] = 00000000, [$t0] = 00000020
 
[$t1] = 00000037, [$t2] = 00000000, [$t3] = 00000000
 
[$t4] = 00000000, [$t5] = 00000000, [$t6] = 00000000
 
[$t7] = 00000000, [$t8] = 00000000, [$t9] = 00000000
 
TIME = 10000, CLK = 1, PC = 11
 
[$s0] = 00000037, [$s1] = 00000037, [$s2] = 00000000
 
[$s3] = 00000000, [$s4] = 00000000, [$s5] = 00000000
 
[$s6] = 00000000, [$s7] = 00000000, [$t0] = 00000020
 
[$t1] = 00000037, [$t2] = 00000000, [$t3] = 00000000
 
[$t4] = 00000000, [$t5] = 00000000, [$t6] = 00000000
 
[$t7] = 00000000, [$t8] = 00000000, [$t9] = 00000000
 
TIME = 0, CLK = 0, PC = 12
 
[$s0] = 00000037, [$s1] = 00000037, [$s2] = 00000000
 
[$s3] = 00000020, [$s4] = 00000000, [$s5] = 00000000
 
[$s6] = 00000000, [$s7] = 00000000, [$t0] = 00000020
 
[$t1] = 00000037, [$t2] = 00000000, [$t3] = 00000000
 
[$t4] = 00000000, [$t5] = 00000000, [$t6] = 00000000
 
[$t7] = 00000000, [$t8] = 00000000, [$t9] = 00000000
 
TIME = 10000, CLK = 1, PC = 13
 
[$s0] = 00000037, [$s1] = 00000037, [$s2] = 00000000
 
[$s3] = 00000020, [$s4] = 00000000, [$s5] = 00000000
 
[$s6] = 00000000, [$s7] = 00000000, [$t0] = 00000020
 
[$t1] = 00000037, [$t2] = 00000000, [$t3] = 00000000
 
[$t4] = 00000000, [$t5] = 00000000, [$t6] = 00000000
 
[$t7] = 00000000, [$t8] = 00000000, [$t9] = 00000000
 
TIME = 0, CLK = 0, PC = 14
 
[$s0] = 00000037, [$s1] = 00000037, [$s2] = 00000000
 
[$s3] = 00000020, [$s4] = 00000000, [$s5] = 00000000
 
[$s6] = 00000000, [$s7] = 00000000, [$t0] = 00000020
 
[$t1] = 00000037, [$t2] = 00000000, [$t3] = 00000000
 
[$t4] = 00000000, [$t5] = 00000000, [$t6] = 00000000
 
[$t7] = 00000000, [$t8] = 00000000, [$t9] = 00000000
 
TIME = 10000, CLK = 1, PC = 15
 
[$s0] = 00000037, [$s1] = 00000037, [$s2] = 00000000
 
[$s3] = 00000020, [$s4] = 00000000, [$s5] = 00000000
 
[$s6] = 00000000, [$s7] = 00000000, [$t0] = 00000020
 
[$t1] = 00000037, [$t2] = 00000000, [$t3] = 00000000
 
[$t4] = 00000000, [$t5] = 00000000, [$t6] = 00000000
 
[$t7] = 00000000, [$t8] = 00000000, [$t9] = 00000000
 
TIME = 0, CLK = 0, PC = 16
 
[$s0] = 00000037, [$s1] = 00000037, [$s2] = 00000000
 
[$s3] = 00000020, [$s4] = 00000000, [$s5] = 00000000
 
[$s6] = 00000000, [$s7] = 00000000, [$t0] = 00000020
 
[$t1] = 00000037, [$t2] = 00000000, [$t3] = 00000000
 
[$t4] = 00000000, [$t5] = 00000000, [$t6] = 00000000
 
[$t7] = 00000000, [$t8] = 00000000, [$t9] = 00000000
 
TIME = 10000, CLK = 1, PC = 17
 
[$s0] = 00000037, [$s1] = 00000037, [$s2] = 00000000
 
[$s3] = 00000020, [$s4] = 00000001, [$s5] = 00000000
 
[$s6] = 00000000, [$s7] = 00000000, [$t0] = 00000020
 
[$t1] = 00000037, [$t2] = 00000000, [$t3] = 00000000
 
[$t4] = 00000000, [$t5] = 00000000, [$t6] = 00000000
 
[$t7] = 00000000, [$t8] = 00000000, [$t9] = 00000000
 
TIME = 0, CLK = 0, PC = 18
 
[$s0] = 00000037, [$s1] = 00000037, [$s2] = 00000000
 
[$s3] = 00000020, [$s4] = 00000001, [$s5] = 00000000
 
[$s6] = 00000000, [$s7] = 00000000, [$t0] = 00000020
 
[$t1] = 00000037, [$t2] = 00000000, [$t3] = 00000000
 
[$t4] = 00000000, [$t5] = 00000000, [$t6] = 00000000
 
[$t7] = 00000000, [$t8] = 00000000, [$t9] = 00000000
 
TIME = 10000, CLK = 1, PC = 19
 
[$s0] = 00000037, [$s1] = 00000037, [$s2] = 00000000
 
[$s3] = 00000020, [$s4] = 00000001, [$s5] = 00000000
 
[$s6] = 00000000, [$s7] = 00000000, [$t0] = 00000020
 
[$t1] = 00000037, [$t2] = 00000000, [$t3] = 00000000
 
[$t4] = 00000000, [$t5] = 00000000, [$t6] = 00000000
 
[$t7] = 00000000, [$t8] = 00000000, [$t9] = 00000000
 
TIME = 0, CLK = 0, PC = 1a
 
[$s0] = 00000037, [$s1] = 00000037, [$s2] = 00000000
 
[$s3] = 00000020, [$s4] = 00000001, [$s5] = 00000000
 
[$s6] = 00000000, [$s7] = 00000000, [$t0] = 00000020
 
[$t1] = 00000037, [$t2] = 00000000, [$t3] = 00000000
 
[$t4] = 00000000, [$t5] = 00000000, [$t6] = 00000000
 
[$t7] = 00000000, [$t8] = 00000000, [$t9] = 00000000
 
TIME = 10000, CLK = 1, PC = 1b
 
[$s0] = 00000037, [$s1] = 00000037, [$s2] = 00000000
 
[$s3] = 00000020, [$s4] = 00000001, [$s5] = 00000000
 
[$s6] = 00000000, [$s7] = 00000000, [$t0] = 00000020
 
[$t1] = 00000037, [$t2] = 00000000, [$t3] = 00000000
 
[$t4] = 00000000, [$t5] = 00000000, [$t6] = 00000000
 
[$t7] = 00000000, [$t8] = 00000000, [$t9] = 00000000
 
TIME = 0, CLK = 0, PC = 1c
 
[$s0] = 00000037, [$s1] = 00000037, [$s2] = 00000037
 
[$s3] = 00000020, [$s4] = 00000001, [$s5] = 00000000
 
[$s6] = 00000000, [$s7] = 00000000, [$t0] = 00000020
 
[$t1] = 00000037, [$t2] = 00000000, [$t3] = 00000000
 
[$t4] = 00000000, [$t5] = 00000000, [$t6] = 00000000
 
[$t7] = 00000000, [$t8] = 00000000, [$t9] = 00000000
 
TIME = 10000, CLK = 1, PC = 1d
 
[$s0] = 00000037, [$s1] = 00000037, [$s2] = 00000037
 
[$s3] = 00000020, [$s4] = 00000001, [$s5] = 00000000
 
[$s6] = 00000000, [$s7] = 00000000, [$t0] = 00000020
 
[$t1] = 00000037, [$t2] = 00000000, [$t3] = 00000000
 
[$t4] = 00000000, [$t5] = 00000000, [$t6] = 00000000
 
[$t7] = 00000000, [$t8] = 00000000, [$t9] = 00000000
 
TIME = 0, CLK = 0, PC = 17
 
[$s0] = 00000037, [$s1] = 00000037, [$s2] = 00000037
 
[$s3] = 00000020, [$s4] = 00000000, [$s5] = 00000000
 
[$s6] = 00000000, [$s7] = 00000000, [$t0] = 00000020
 
[$t1] = 00000037, [$t2] = 00000000, [$t3] = 00000000
 
[$t4] = 00000000, [$t5] = 00000000, [$t6] = 00000000
 
[$t7] = 00000000, [$t8] = 00000000, [$t9] = 00000000
 
TIME = 10000, CLK = 1, PC = 18
 
[$s0] = 00000037, [$s1] = 00000037, [$s2] = 00000037
 
[$s3] = 00000020, [$s4] = 00000000, [$s5] = 00000000
 
[$s6] = 00000000, [$s7] = 00000000, [$t0] = 00000020
 
[$t1] = 00000037, [$t2] = 00000000, [$t3] = 00000000
 
[$t4] = 00000000, [$t5] = 00000000, [$t6] = 00000000
 
[$t7] = 00000000, [$t8] = 00000000, [$t9] = 00000000
 
TIME = 0, CLK = 0, PC = 19
 
[$s0] = 00000037, [$s1] = 00000037, [$s2] = 00000037
 
[$s3] = 00000020, [$s4] = 00000000, [$s5] = 00000000
 
[$s6] = 00000000, [$s7] = 00000000, [$t0] = 00000020
 
[$t1] = 00000037, [$t2] = 00000000, [$t3] = 00000000
 
[$t4] = 00000000, [$t5] = 00000000, [$t6] = 00000000
 
[$t7] = 00000000, [$t8] = 00000000, [$t9] = 00000000
 
TIME = 10000, CLK = 1, PC = 1a
 
[$s0] = 00000037, [$s1] = 00000037, [$s2] = 00000037
 
[$s3] = 00000020, [$s4] = 00000000, [$s5] = 00000000
 
[$s6] = 00000000, [$s7] = 00000000, [$t0] = 00000020
 
[$t1] = 00000037, [$t2] = 00000000, [$t3] = 00000000
 
[$t4] = 00000000, [$t5] = 00000000, [$t6] = 00000000
 
[$t7] = 00000000, [$t8] = 00000000, [$t9] = 00000000
 
TIME = 0, CLK = 0, PC = 1b
 
[$s0] = 00000037, [$s1] = 00000037, [$s2] = 00000037
 
[$s3] = 00000020, [$s4] = 00000000, [$s5] = 00000000
 
[$s6] = 00000000, [$s7] = 00000000, [$t0] = 00000020
 
[$t1] = 00000037, [$t2] = 00000000, [$t3] = 00000000
 
[$t4] = 00000000, [$t5] = 00000000, [$t6] = 00000000
 
[$t7] = 00000000, [$t8] = 00000000, [$t9] = 00000000
 
TIME = 10000, CLK = 1, PC = 2b
 
[$s0] = 00000037, [$s1] = 00000037, [$s2] = 00000037
 
[$s3] = 00000020, [$s4] = 00000000, [$s5] = 00000000
 
[$s6] = 00000000, [$s7] = 00000000, [$t0] = 00000020
 
[$t1] = 00000037, [$t2] = 00000000, [$t3] = 00000000
 
[$t4] = 00000000, [$t5] = 00000000, [$t6] = 00000000
 
[$t7] = 00000000, [$t8] = 00000000, [$t9] = 00000000
 
TIME = 0, CLK = 0, PC = xx
 
[$s0] = 00000037, [$s1] = 00000037, [$s2] = 00000037
 
[$s3] = 00000020, [$s4] = 00000000, [$s5] = 00000000
 
[$s6] = 00000000, [$s7] = 00000000, [$t0] = 00000020
 
[$t1] = 00000037, [$t2] = 00000000, [$t3] = 00000000
 
[$t4] = 00000000, [$t5] = 00000000, [$t6] = 00000000
 
[$t7] = 00000000, [$t8] = 00000000, [$t9] = 00000000
 
TIME = 10000, CLK = 1, PC = xx
 
[$s0] = 00000037, [$s1] = 00000037, [$s2] = 00000037
 
[$s3] = 00000020, [$s4] = 00000000, [$s5] = 00000000
 
[$s6] = 00000000, [$s7] = 00000000, [$t0] = 00000020
 
[$t1] = 00000037, [$t2] = 00000000, [$t3] = 00000000
 
[$t4] = 00000000, [$t5] = 00000000, [$t6] = 00000000
 
[$t7] = 00000000, [$t8] = 00000000, [$t9] = 00000000
 
TIME = 0, CLK = 0, PC = xx
 
[$s0] = 00000037, [$s1] = 00000037, [$s2] = 00000037
 
[$s3] = 00000020, [$s4] = 00000000, [$s5] = 00000000
 
[$s6] = 00000000, [$s7] = 00000000, [$t0] = 00000020
 
[$t1] = 00000037, [$t2] = 00000000, [$t3] = 00000000
 
[$t4] = 00000000, [$t5] = 00000000, [$t6] = 00000000
 
[$t7] = 00000000, [$t8] = 00000000, [$t9] = 00000000
 
TIME = 10000, CLK = 1, PC = xx
 
[$s0] = 00000037, [$s1] = 00000037, [$s2] = 00000037
 
[$s3] = 00000020, [$s4] = 00000000, [$s5] = 00000000
 
[$s6] = 00000000, [$s7] = 00000000, [$t0] = 00000020
 
[$t1] = 00000037, [$t2] = 00000000, [$t3] = 00000000
 
[$t4] = 00000000, [$t5] = 00000000, [$t6] = 00000000
 
[$t7] = 00000000, [$t8] = 00000000, [$t9] = 00000000
 
TIME = 0, CLK = 0, PC = xx
 
[$s0] = 00000037, [$s1] = 00000037, [$s2] = 00000037
 
[$s3] = 00000020, [$s4] = 00000000, [$s5] = 00000000
 
[$s6] = 00000000, [$s7] = 00000000, [$t0] = 00000020
 
[$t1] = 00000037, [$t2] = 00000000, [$t3] = 00000000
 
[$t4] = 00000000, [$t5] = 00000000, [$t6] = 00000000
 
[$t7] = 00000000, [$t8] = 00000000, [$t9] = 00000000
 
TIME = 10000, CLK = 1, PC = xx
 
[$s0] = 00000037, [$s1] = 00000037, [$s2] = 00000037
 
[$s3] = 00000020, [$s4] = 00000000, [$s5] = 00000000
 
[$s6] = 00000000, [$s7] = 00000000, [$t0] = 00000020
 
[$t1] = 00000037, [$t2] = 00000000, [$t3] = 00000000
 
[$t4] = 00000000, [$t5] = 00000000, [$t6] = 00000000
 
[$t7] = 00000000, [$t8] = 00000000, [$t9] = 00000000
 
TIME = 0, CLK = 0, PC = xx
 
[$s0] = 00000037, [$s1] = 00000037, [$s2] = 00000037
 
[$s3] = 00000020, [$s4] = 00000000, [$s5] = 00000000
 
[$s6] = 00000000, [$s7] = 00000000, [$t0] = 00000020
 
[$t1] = 00000037, [$t2] = 00000000, [$t3] = 00000000
 
[$t4] = 00000000, [$t5] = 00000000, [$t6] = 00000000
 
[$t7] = 00000000, [$t8] = 00000000, [$t9] = 00000000
 
TIME = 10000, CLK = 1, PC = xx
 
[$s0] = 00000037, [$s1] = 00000037, [$s2] = 00000037
 
[$s3] = 00000020, [$s4] = 00000000, [$s5] = 00000000
 
[$s6] = 00000000, [$s7] = 00000000, [$t0] = 00000020
 
[$t1] = 00000037, [$t2] = 00000000, [$t3] = 00000000
 
[$t4] = 00000000, [$t5] = 00000000, [$t6] = 00000000
 
[$t7] = 00000000, [$t8] = 00000000, [$t9] = 00000000
 
TIME = 0, CLK = 0, PC = xx
 
[$s0] = 00000037, [$s1] = 00000037, [$s2] = 00000037
 
[$s3] = 00000020, [$s4] = 00000000, [$s5] = 00000000
 
[$s6] = 00000000, [$s7] = 00000000, [$t0] = 00000020
 
[$t1] = 00000037, [$t2] = 00000000, [$t3] = 00000000
 
[$t4] = 00000000, [$t5] = 00000000, [$t6] = 00000000
 
[$t7] = 00000000, [$t8] = 00000000, [$t9] = 00000000
 
TIME = 10000, CLK = 1, PC = xx
 
[$s0] = 00000037, [$s1] = 00000037, [$s2] = 00000037
 
[$s3] = 00000020, [$s4] = 00000000, [$s5] = 00000000
 
[$s6] = 00000000, [$s7] = 00000000, [$t0] = 00000020
 
[$t1] = 00000037, [$t2] = 00000000, [$t3] = 00000000
 
[$t4] = 00000000, [$t5] = 00000000, [$t6] = 00000000
 
[$t7] = 00000000, [$t8] = 00000000, [$t9] = 00000000
 
TIME = 0, CLK = 0, PC = xx
 
[$s0] = 00000037, [$s1] = 00000037, [$s2] = 00000037
 
[$s3] = 00000020, [$s4] = 00000000, [$s5] = 00000000
 
[$s6] = 00000000, [$s7] = 00000000, [$t0] = 00000020
 
[$t1] = 00000037, [$t2] = 00000000, [$t3] = 00000000
 
[$t4] = 00000000, [$t5] = 00000000, [$t6] = 00000000
 
[$t7] = 00000000, [$t8] = 00000000, [$t9] = 00000000
 
TIME = 10000, CLK = 1, PC = xx
 
[$s0] = 00000037, [$s1] = 00000037, [$s2] = 00000037
 
[$s3] = 00000020, [$s4] = 00000000, [$s5] = 00000000
 
[$s6] = 00000000, [$s7] = 00000000, [$t0] = 00000020
 
[$t1] = 00000037, [$t2] = 00000000, [$t3] = 00000000
 
[$t4] = 00000000, [$t5] = 00000000, [$t6] = 00000000
